%TF.GenerationSoftware,KiCad,Pcbnew,6.0.2+dfsg-1*%
%TF.CreationDate,2022-03-29T15:42:18+02:00*%
%TF.ProjectId,tetris,74657472-6973-42e6-9b69-6361645f7063,v0.1.1*%
%TF.SameCoordinates,Original*%
%TF.FileFunction,Profile,NP*%
%FSLAX46Y46*%
G04 Gerber Fmt 4.6, Leading zero omitted, Abs format (unit mm)*
G04 Created by KiCad (PCBNEW 6.0.2+dfsg-1) date 2022-03-29 15:42:18*
%MOMM*%
%LPD*%
G01*
G04 APERTURE LIST*
%TA.AperFunction,Profile*%
%ADD10C,0.100000*%
%TD*%
G04 APERTURE END LIST*
D10*
X114300000Y-63500000D02*
X114300000Y-105410000D01*
X114300000Y-105410000D02*
X158750000Y-105410000D01*
X158750000Y-105410000D02*
X158750000Y-63500000D01*
X158750000Y-63500000D02*
X114300000Y-63500000D01*
X115966666Y-63500000D02*
G75*
G03*
X115966666Y-63500000I-1666666J0D01*
G01*
X111800000Y-63500000D02*
X116800000Y-63500000D01*
X114300000Y-61000000D02*
X114300000Y-66000000D01*
M02*
