"Source:","/home/francois/GITLAB/diy/diy_ATtiny-tetris/tetris/tetris.kicad_sch"
"Date:","mar. 29 mars 2022 15:37:22"
"Tool:","Eeschema 6.0.2+dfsg-1"
"Generator:","/usr/share/kicad/plugins/bom_csv_grouped_by_value.py"
"Component Count:","15"

"Individual Components:"

"Item","Qty","Reference(s)","Value","LibPart","Footprint","Datasheet"
"","","BZ1","pizo buzzer plate","Device:Buzzer","Connector_PinSocket_2.54mm:PinSocket_1x02_P2.54mm_Horizontal","~"
"","","C1","10nf","Device:C_Small","Capacitor_SMD:C_0603_1608Metric","~"
"","","J1","screen","Connector:Conn_01x04_Female","Connector_PinSocket_2.54mm:PinSocket_1x04_P2.54mm_Vertical","~"
"","","R1","10k","Device:R_US","Resistor_SMD:R_0805_2012Metric","~"
"","","R2","2k2","Device:R_US","Resistor_SMD:R_0805_2012Metric","~"
"","","R3","1k","Device:R_US","Resistor_SMD:R_0805_2012Metric","~"
"","","R4","10k","Device:R_US","Resistor_SMD:R_0805_2012Metric","~"
"","","SW1","OnOFF","Switch:SW_SPDT","Button_Switch_THT:SW_E-Switch_EG1224_SPDT_Angled","~"
"","","SW2","reset","Switch:SW_Push","Button_Switch_THT:SW_PUSH_6mm_H5mm","~"
"","","SW3","ROTATE","Switch:SW_Push","Button_Switch_THT:SW_PUSH_6mm_H5mm","~"
"","","SW4","LEFT","Switch:SW_Push","Button_Switch_THT:SW_PUSH_6mm_H5mm","~"
"","","SW5","RIGHT","Switch:SW_Push","Button_Switch_THT:SW_PUSH_6mm_H5mm","~"
"","","SW6","DROP","Switch:SW_Push","Button_Switch_THT:SW_PUSH_6mm_H5mm","~"
"","","SW7","sound_disable","Switch:SW_SPDT","Button_Switch_THT:SW_E-Switch_EG1224_SPDT_Angled","~"
"","","U1","ATtiny85-20P","MCU_Microchip_ATtiny:ATtiny85-20P","Package_DIP:DIP-8_W7.62mm","http://ww1.microchip.com/downloads/en/DeviceDoc/atmel-2586-avr-8-bit-microcontroller-attiny25-attiny45-attiny85_datasheet.pdf"



"Collated Components:"

"Item","Qty","Reference(s)","Value","LibPart","Footprint","Datasheet"
"1","1","BZ1","pizo buzzer plate","Device:Buzzer","Connector_PinSocket_2.54mm:PinSocket_1x02_P2.54mm_Horizontal","~"
"2","1","C1","10nf","Device:C_Small","Capacitor_SMD:C_0603_1608Metric","~"
"3","1","J1","screen","Connector:Conn_01x04_Female","Connector_PinSocket_2.54mm:PinSocket_1x04_P2.54mm_Vertical","~"
"4","2","R1, R4","10k","Device:R_US","Resistor_SMD:R_0805_2012Metric","~"
"5","1","R2","2k2","Device:R_US","Resistor_SMD:R_0805_2012Metric","~"
"6","1","R3","1k","Device:R_US","Resistor_SMD:R_0805_2012Metric","~"
"7","1","SW1","OnOFF","Switch:SW_SPDT","Button_Switch_THT:SW_E-Switch_EG1224_SPDT_Angled","~"
"8","1","SW2","reset","Switch:SW_Push","Button_Switch_THT:SW_PUSH_6mm_H5mm","~"
"9","1","SW3","ROTATE","Switch:SW_Push","Button_Switch_THT:SW_PUSH_6mm_H5mm","~"
"10","1","SW4","LEFT","Switch:SW_Push","Button_Switch_THT:SW_PUSH_6mm_H5mm","~"
"11","1","SW5","RIGHT","Switch:SW_Push","Button_Switch_THT:SW_PUSH_6mm_H5mm","~"
"12","1","SW6","DROP","Switch:SW_Push","Button_Switch_THT:SW_PUSH_6mm_H5mm","~"
"13","1","SW7","sound_disable","Switch:SW_SPDT","Button_Switch_THT:SW_E-Switch_EG1224_SPDT_Angled","~"
"14","1","U1","ATtiny85-20P","MCU_Microchip_ATtiny:ATtiny85-20P","Package_DIP:DIP-8_W7.62mm","http://ww1.microchip.com/downloads/en/DeviceDoc/atmel-2586-avr-8-bit-microcontroller-attiny25-attiny45-attiny85_datasheet.pdf"
